<?xml version="1.0" encoding="utf-8"?>
<!-- Generator: Adobe Illustrator 18.1.1, SVG Export Plug-In . SVG Version: 6.00 Build 0)  -->
<svg version="1.1" id="Layer_1" xmlns="http://www.w3.org/2000/svg" xmlns:xlink="http://www.w3.org/1999/xlink" x="0px" y="0px"
	 viewBox="0 0 612 792" enable-background="new 0 0 612 792" xml:space="preserve">
<g>
	<g id="XMLID_1_">
		<g>
			<path d="M248.7,466.5c-5.3-10,18.1-6,32.5-3.5c9.9,1.6,18.8,0.5,30.3-2.9c0.4-2.9,0-9.1,0-12.4c-0.2-2.2,0.2-6.2-0.4-10.4
				c-3.5,0.9-6.2,1.8-8,2.4c-14.2,3.8-26.8,5.7-42.3,2.7c-9.5-1.6-24.8-5.7-28.1-17.7c-2.4-8.6,9.9-1.6,34.9-5.1
				c24.5-3.3,68.6-13.5,101.3-27.9c3.5-1.6,8-1.8,11.9-1.1c11.7,2.2,26.8,3.8,28.1,17.7c1.3,14.2-13.9,13-23.9,15.1
				c-10.4,2.2-16.6,3.6-27.2,4.9c-2.9,0.4-14.2,1.5-18.6,2.4c0.2,3.8-0.5,16.2-0.2,23.4c4.2-1.3,13-4.2,17.2-5.3
				c10.4-2.9,21-5.7,31,0.7c4.2,2.7,8.8,6.4,7.1,13c-1.1,4.6-2.4,6.2-5.3,6.9c-9.5,2.7-16.8-1.5-32.5,2.4
				c-4.7,1.1-12.4,3.1-17.9,4.2c0,3.8-0.8,15.3-0.4,22.7c5.5-0.9,16-2.5,22.3-3c12.4-1.1,18.2-3.8,26.9-2.5
				c10,1.6,17.4,7.9,15.1,18.9c-1.8,8.8-6.4,2.6-22.4,3.5c-13.5,0.8-37.6,4.6-42.1,5.6c-0.2,4.9-0.3,17.8,0,24
				c3.6-0.3,13-1,16.9-1.2c28.1-2,56.2-5.7,82.3-15.7c29-10.9,44.9,4.6,61.9,23.2c17.2,18.8,23.5,37,9.5,61.1
				c-12,20.6-18.1,44.5-31.2,64.8c-8.2,12.6-17.5,23.7-30.8,30.7c-7.1,3.8-17.2,8-22.6,2.4c-17.5-18.1-43.2-25-62.6-45.1
				c20.3-5.8,35,3.8,50.9,4.6c19.5,0.9,34.1-3.8,43.4-21.3c5.7-10.6,10.2-21.7,16.2-32.1c9.9-17.3,8.4-32.3-4.9-47.4
				c-12.8-14.4-27-21.3-46.2-15.9c-43.8,12.6-89.4,14.8-134.1,23c-24.6,4.6-48.1-11.8-46.7-17.5c0.9-3.8,13.5-7.1,21-7.5
				c10.6-0.5,21.3-0.4,32.1-0.9c5.4-0.2,13.6-0.9,18.8-2.3c0.2-5.8-0.1-15.6-0.2-22.4c-6.7,0.8-14.3,2.3-18.6,2.7
				c-11.4,1.6-24.1,2.3-35-2c-4.5-1.8-12.1-7.3-12.9-12.4c-1.1-7.3,18.9-3.7,26.1-4.3c13.7-1.1,17.2-2.1,29.4-4.6
				c4.1-0.9,8.4-1.9,10.9-2.4c0.2-3.3,0.4-7.8,0.3-9.7c-0.1-4.6,0.2-8.4-0.3-12.6c-4,0.5-9.9,1-15.4,1.7
				c-10.3,1.3-22.8,1.1-32.3-2.4C255.6,476.6,250.5,470,248.7,466.5z"/>
			<path d="M483.5,304.9c8.6,6,18.6,13.3,15.1,25.7c-3.3,11.7-15,8.8-23.9,8.9c-6.6,0.2-13.5-0.4-19.9-1.6
				c-37.6-7.1-74.3-4.4-111.1,5.3c-29.2,7.7-43.6,1.1-55.3-5.1c-4.7-2.6-15-11.7-13.7-18.8c1.8-9.7,22.3,0.2,67.7-2.2
				c6.4-0.4,14.4-1.1,19.7-2.7c0.2-3.6-0.2-8.9-0.4-14c-0.2-5.1-0.4-12.8-1.1-17.3c-7.1,0.7-13.3,2.4-19.7,2.7
				c-17.3,1.1-24.6-2.2-34.7-6.6c-7.8-3.6-13.9-7.8-16.2-15.5c-3.3-10.6,36.9-2.9,52.9-4.4c5.5-0.5,13-1.3,17.2-2.7
				c0.4-3.8,0-6.4-0.4-12.4c-0.2-2.7,0.2-9.9,0.4-16.2c-8.2,0.4-13.7,2.4-18.6,2.9c-19.2,2.2-32.1-1.3-50.7-10.4
				c-8.6-4.4-14.6-10.4-10.9-15c2.7-3.6,35.6,0.2,52.4-0.2c7.8-0.2,20.1,0.5,29.2-3.1c0.2-4.2,0.4-11.5,0.7-19
				c0.2-3.5,0-7.1-0.7-14.6c-7.3,0.9-11.5,1.8-15.3,3.3c-29.6,10.9-46.2,4.4-69.7-8.9c-3.5-2-6.2-3.1-7.8-5.7
				c-4.6-6.6,9.9-14.6,21-11.7c17.2,4.6,34.5,3.5,51.8,2.4c7.3-0.5,13.1,0.2,19.9-3.1c-0.4-4.2-1.1-12.6-1.3-18.2
				c-0.7-26.1-7.7-49.8-31-67.3c48.5-12.6,58.2,8.8,62.2,79.4c13.1-3.6,19.2-6.8,33.8-13.3c11.7-5.3,24.1-7.3,32.3,11.7
				c5.8,13.3-12.8,15.9-43.2,21.2c-11.1,1.8-17.9,2-22.6,4.9c0,7.5-0.4,19.7-0.9,33.6c8.9-0.2,19.2-3.8,28.1-5.7
				c9.1-2,15.9-7.1,27.7-0.7c6,3.3,11.9,6.4,11.9,14.2c0,7.1-5.8,9.5-10.9,9.5c-16.8-0.2-24.3,1.3-38.9,4.9
				c-5.7,1.5-16.1,3.3-19.2,4.6c-1.1,6.4-0.5,11.9-0.7,17.2c-0.2,6.4-0.7,7.1-0.5,12.8c6.2-0.9,14,0.2,22.1-1.5
				c10.4-2,16.6-2,29.9-5.8c9.7-2.7,18.2,6,19.3,16.6c1.3,12.2-8.6,12.4-16.4,13.1c-13.3,1.3-26.6,1.5-40,2.2
				c-5.5,0.2-10.8,0.4-14.8,1.5c-0.2,6.4-0.2,11.9,0.4,17.9c0.4,5.3,0,8.9-0.2,13.1c4.7-0.9,13-1.8,17.3-1.8
				c14.8,0,29.4-0.7,43.6-5.5C460.4,298.9,472.8,297.4,483.5,304.9z"/>
			<path d="M407.3,607.9c8.2,6.2,16.2,16.2,7.3,27.4c-8.2,10-19.7,8.2-28.6,1.1c-17.5-13.7-58.8-44.2-53.6-45.3
				C361.8,584.8,386.3,592.3,407.3,607.9z"/>
			<path d="M325,633.1c4.4,7.1,6.9,14.4-0.7,21.5c-8.9,8.4-17.2,5.7-24.6-1.5C284.4,638.3,254,601,261,600.7
				C287.8,599.9,310.6,609.8,325,633.1z"/>
			<path d="M246.7,96.5c17.5-3.8,42.1-5.8,41.6,17.2c-0.2,7.7-10.6,7.1-17.2,8.2c-27.9,4.6-27.9,4.7-27.6,38.3
				c8.8,7.7,16.8-8.2,23-2.6c0.2,0.2,0.4,0.5,0.4,0.9c0,0.9-0.2,1.5-0.9,2.2c-32.1,33.8-26.1,75.9-25.2,117
				c0.4,17.3,0.9,34.7-0.2,52c-0.5,9.3-4.4,19.7-15.7,20.3c-13.9,0.5-16.2-12-18.2-22.3c-1.3-6.2,1.6-13.1,2-19.7
				c1.5-26.5,2.6-52.9,4-82.5c-16.8,4-23.5,16.1-33.6,23.5c-11.7,8.8-22.4,18.8-36.5,24.1c-7.3,2.7-13.5,0.2-17.9-5.1
				c-4.4-5.5-4.9-12.4-1.5-18.8c1.8-3.5,4.2-6.9,7.3-9.3c31.6-23.4,49.4-59.3,78.3-85.2c5.1-4.6,11.7-7.7,10.4-14.2
				c-0.7-3.5,0-5.5-0.7-8.4c-3.5-0.9-14.6,1.3-18.2,1.6c-6.6,0.5-13.1,3.1-19.7,2.7c-5.7-0.4-10.6-1.6-14.8-4.4
				c-5.3-3.5-10.8-9.3-10.6-19.2c0.2-2.9,10.2-0.9,15.1-1.3c7.8-0.7,15.7-1.5,23.4-2.4c12-1.6,18.1-5.1,27-7.3
				c0-6.6,1.3-17-3.3-30.3c-1.6-4.9-4.7-9.5-7.7-13.9c-3.5-5.3-10.2-10.9-4.2-17.2c6-6,15.1-5.3,22.6-1.8
				c10.4,4.7,16.4,14.2,18.1,25C247.8,73.5,246.7,84.1,246.7,96.5z M215.1,197c1.6-9.3,2.6-16.6,2.4-25.9
				c-14.8,9.1-24.1,16.6-28.5,31.9C195.8,200.5,207.3,197,215.1,197z"/>
			<path d="M244.5,650.3c3.1,10,2.6,19.5-7.7,23.7c-8.4,3.5-15.7-2.7-19.2-10c-8.2-17.5-32.9-60.1-25.4-58.9
				c17.5,2.7,29.7,16.4,39.4,25.5C237.6,636,242.1,642.3,244.5,650.3z"/>
			<path d="M231.7,437.7c2,7.5,2.7,15.9,2.4,23.7c-2.1,33.5-7.6,66.6-8.5,102.1c-0.1,5.1,2,13.4-0.1,15.4
				c-3.1,2.9-11.5-5.4-15.5-8.8c-10.1-8.8-13.2-20.7-15-32.8c-2-13-0.9-26.5-0.5-39.8c0.6-29.2,6.4-59.7-15.7-84.5
				c-3.8-4.3-12.9-9.1-14.2-12.4c-1.3-3.1,19.8-0.6,27.7,0.8C213.8,405.4,226.2,417.6,231.7,437.7z"/>
			<path d="M176.6,677.3c4.2,11.7,3.1,25.5-11.5,29.7c-11.9,3.3-20.8-5.3-24.5-15.9c-7.5-22.1-27.3-74-21.5-72.3
				C143,626.2,167.7,651.7,176.6,677.3z"/>
		</g>
	</g>
</g>
</svg>
