<?xml version="1.0" encoding="utf-8"?>
<!-- Generator: Adobe Illustrator 18.1.1, SVG Export Plug-In . SVG Version: 6.00 Build 0)  -->
<svg version="1.1" id="Layer_1" xmlns="http://www.w3.org/2000/svg" xmlns:xlink="http://www.w3.org/1999/xlink" x="0px" y="0px"
	 viewBox="0 0 612 792" enable-background="new 0 0 612 792" xml:space="preserve">
<g>
	<g id="XMLID_1_">
		<g>
			<path d="M270.2,361.5c-2.4-8.1-5.9-15-8-18.1l2.1-1c4,0.2,8.4,0.7,10.7,1.7c2.6,1,5.3,2.4,7.2,4.5c3.1-0.8,32.9-6.8,44.8-9
				c7.6-1.4,21-1.6,28.7,0.6c14.1,4.1,4,43.8-1.2,55.5c-2.2,4.9-6.1,10.5-12.8,3c-4.9-5.5-12-2.4-18.2-2.5c-8-0.1-16.2,1.2-25.1-2.5
				c-2.3-0.9-4.7-2.1-7-3.9c-0.1,0-0.1-0.1-0.1-0.1c0-0.7,5.2-1.7,7.5-2.3c15.2-3.8,29.9-1.1,43.8-4.6c0.8-2.1,2.2-4.4,2.6-6.8
				c4-22.5,4.6-29.5-18.4-27.4c-6.3,0.6-33,4.2-43,6.1c1.6,11.9,3,23,4.5,34.1c0,0.3,0.1,0.6,0.1,0.9c0.1,3.9-2.6,7-8.5,9.4
				c-1.6,0.7-1.7-4.6-2.4-7.9C275.1,381.3,273.1,371.2,270.2,361.5z"/>
			<path d="M291.7,369.8c-1.7-1.4,8.7-3.8,10.9-4.2c11.9-2.2,16.3-7.8,27.7-4.6c3.3,0.9,6.2,2.3,6.4,5.8c0.2,3.5-2.5,5-5.8,6.1
				c-10.7,3.7-21.2,2.6-30,1.1C298.9,373.7,293.5,371.3,291.7,369.8z"/>
			<path d="M387.4,329.5c5.8,2.8,7.7,8.7,4.6,14.5c-3.5,6.4-9.2,4.9-14.8,2.4c-12.2-5.5-29.8-21.6-38.4-39.6
				C355.1,314.3,371.4,321.6,387.4,329.5z"/>
			<path d="M360.9,287.3c3,3.1,2.5,7.8-2.7,8.4c-6.3,0.8-12.7,0.1-19,0c-8-0.1-13.1,0.5-15.9,1.2c0.1,2.8,0.1,8,0.8,15.1
				c0.6,6.3,0.3,12.6-3,18.5c-4.9,8.7-8.7,9.5-15.6,2.4c-2.2-2.3-3.9-4.9-6.5-8.2c8.9-5.7,10.9-1.2,10.2-22.1c0-0.8,0.2-3.4-0.4-3.8
				c-4.9,0.5-10.6,1.6-14.6,3c-10.1,3.6-18.6,1.7-25.7-6.4c-2-2.3-3.5-5.9-1.3-5.4c6.8,1.6,22.3-0.9,33.2-1.6
				c2.6-0.2,6.1-0.3,8.5-0.7c0.8-1.7-0.1-5.8,1.5-9.7c3.2,1.2,5.3,2.7,7.1,4c1.8,1.2,3.3,2.5,5.3,4.9c4.1-0.3,10.7-1,17.3-4.1
				C348.2,279.1,355.3,281.5,360.9,287.3z"/>
			<path d="M324.1,252.8c4.4,4.4,3.9,13-2.6,16.4c-10.5,5.5-21.5,10.6-36.2,7.2c8.4-8,15.8-14.9,22.8-21.9
				C313.5,249.1,319.7,248.3,324.1,252.8z"/>
			<path d="M270.7,308.3c20.8,13.6,19.2,17.8-6.4,34.1l-2.1,1c-4.3,1.9-11.3,5-14.9,5.9c-7.3,1.8-14.9,4.7-23.1,2.9
				c12.2-7.3,24.2-14.4,36.1-21.6C268,326,276.5,321.8,270.7,308.3z"/>
		</g>
		<g>
		</g>
	</g>
</g>
<path d="M361.1,502.9c-2.7,0.9-18-3.4-37,0.9c-0.1,2.6-0.4,7.6,0,10.4c4.5-0.4,7.7-1.1,12.2-2.5c1.7-0.6,7.3-2.4,11.9-1.9
	c10.2,1.1,19.2,13,12.2,14.8c-2.7,0.7-27.5,0.6-36.4,1.7c0.1,2.8,0,4.7,0,7.3c15,0.8,29.6-1.1,45.6-0.8c2.9-16.3,9.2-42.7,8.2-45.3
	c-6.6-15.7-16-14.9-53.2-7.5c-0.3,3.2-0.4,8.8-0.1,11c9.6-0.3,17.7-6.6,25.4-4.4C356.8,488.5,370.5,499.8,361.1,502.9z M407.9,534.2
	c12.2,0.7,21.5,14.6,18.9,21.2c-1.1,2.7-18.8,0.2-27.5-2.6c-24.2-7.7-50.3-6.9-75.4-6c-0.5,2.6-0.2,8.7-1.2,15.5
	c-1.8,12.2-5.4,26.7-7.3,27.5c-1.4,0.5-5-13.8-5.9-20.7c-0.8-6.1-0.4-13.4-1.2-21.4c-18.4,1.2-37.2,4.3-54,10.9
	c-8.5,3.3-17,5.5-26.2,5.4c-18.9-0.5-28.8-18.3-26.8-20.4c1.4-1.4,37.4,5.7,56.4-0.3c-4.8-22.9-5.8-49.4-22.8-68
	c11-5.1,24.4-0.9,26,3.8c7.2-1.2,28.8-3.1,46.3-6.8c0.3-2.8-0.1-6.6-0.3-10.7c-0.1-1.4-0.1-3.1-0.1-3.1s-15.4,2.5-21.2,4.3
	c-11,3.4-26.4,0.2-28.7-9.7c-2.2-9.5,37.3-0.4,49.7-5.1c0.5-6.9-1.5-18.9-8.5-26.6c12.2-4.3,21.2-4.1,26.6,2.3
	c4.7,8.8,2,16,1.7,20.9c8.4-1.7,16.3-6.6,24.5-6.5c8.3,0.3,21.8,11.8,15.3,15.5c-1.9,1.1-28.3-4.3-41,1.5
	c-0.6,4.6-0.9,10.1-0.6,15.1c2.2,0.2,11.2-0.8,13.8-1.3c6-1,11.3-1,20.9-3.7c24.2-6.8,43.9,10.6,41.9,25.8
	c-0.9,6.6-16.6,26.1-15.9,42.6C392.8,534.4,400.6,533.8,407.9,534.2z M307.9,493c0.1-4.3,0.6-7,0.5-11c-14,1.1-31.2,4.7-45.7,6.4
	c-1.1,18.4,8.4,33.1,8.7,51.8c11.1-3.1,27.1-3.5,37-5c-0.1-2,0.1-3.2-0.2-7.8c-6,0.3-12.7,1.7-22.9,1.6c-4.6,0-11.8-4.9-10.6-10.1
	c1.1-4.8,11.3-1.6,21.7-1.9c4.4-0.2,10.3-0.6,12-1.1c0.1-1.2-0.1-6.5-0.5-10.1c-8.8,0.5-19.2,3.5-26.4,1.8
	c-8.1-1.8-13.1-11.1-7.3-12C285.5,493.7,293.9,496.3,307.9,493z"/>
</svg>
